{
  "type": "minecraft:crafting_shapeless",
  "ingredients": [
    {
      "item": "minecraft:iron_ore"
    },
    {
      "item": "minecraft:iron_ore"
    },
    {
      "item": "minecraft:gold_ore"
    }
  ],
  "result": {
    "item": "flowcontrol:block_copper_ore",
    "count": 3
  }
}