{
  "type": "minecraft:crafting_shaped",
  "pattern": [
    "###",
    "###",
    "###"
  ],
  "key": {
    "#": {
      "item": "flowcontrol:item_copper_nugget"
    }
  },
  "result": {
    "item": "flowcontrol:item_copper_ingot"
  }
}