{
  "type": "minecraft:crafting_shaped",
  "pattern": [
    "CC"
  ],
  "key": {
    "C": {
      "item": "flowcontrol:item_copper_ingot"
    }
  },
  "result": {
    "item": "flowcontrol:item_wire",
    "count": 4
  }
}