{
  "type": "minecraft:crafting_shaped",
  "pattern": [
    "IXI",
    "ILI",
    "ITI"
  ],
  "key": {
    "L": {
      "item": "flowcontrol:item_cable"
    },
    "X": {
      "item": "flowcontrol:item_circuit"
    },
    "I": {
      "item": "minecraft:iron_ingot"
    },
    "T": {
      "item": "flowcontrol:flow_tube"
    }
  },
  "result": {
    "item": "flowcontrol:product_type_8719"
  }
}