{
  "multipart": [
    {
      "when": { "OR": [
        { "facing": "north", "flow": "0|1|2|3" }
      ]},
      "apply": { "model":  "flowcontrol:product_type_8742", "y": 180 }
    },
    {
      "when": { "OR": [
        { "facing": "south", "flow": "0|1|2|3" }
      ]},
      "apply": { "model":  "flowcontrol:product_type_8742", "y": 0 }
    },
    {
      "when": { "OR": [
        { "facing": "west", "flow": "0|1|2|3" }
      ]},
      "apply": { "model":  "flowcontrol:product_type_8742", "y": 270 }
    },
    {
      "when": { "OR": [
        { "facing": "east", "flow": "0|1|2|3" }
      ]},
      "apply": { "model":  "flowcontrol:product_type_8742", "y": 90 }
    }
  ]
}